Simulation of Sediment Archived Climate Proxy Records • sedproxy
…
PFM <- ClimToProxyClim(clim.signal = clim.in,
                       timepoints = round(N41.proxy$Published.age),
                       calibration.type = "identity",
                       habitat.weights = N41.G.ruber.seasonality,
                       sed.acc.rate = N41.proxy$Sed.acc.rate.cm.ka,
                       sigma.meas = 0.23,
                       sigma.ind = 2,
                       n.samples = 30,
                       n.replicates = 10)

PFM$everything

## # A tibble: 14,045 x 7
##    timepoints n.samples replicate stage             value scale       label     
##         <dbl>     <dbl>     <dbl> <chr>             <dbl> <chr>       <chr>     
##  1       4334        30         1 proxy.bt.sb.sampY  27.7 Proxy units (4) +Alia~
##  2       4527        30         1 proxy.bt.sb.sampY  27.7 Proxy units (4) +Alia~
##  3       4576        30         1 proxy.bt.sb.sampY  27.7 Proxy units (4) +Alia~
##  4       4721        30         1 proxy.bt.sb.sampY  27.6 Proxy units (4) +Alia~
##  5       4914        30         1 proxy.bt.sb.sampY  27.6 Proxy units (4) +Alia~
##  6       4994        30         1 proxy.bt.sb.sampY  27.6 Proxy units (4) +Alia~
##  7       5092        30         1 proxy.bt.sb.sampY  27.7 Proxy units (4) +Alia~
##  8       5156        30         1 proxy.bt.sb.sampY  27.6 Proxy units (4) +Alia~
##  9       5254        30         1 proxy.bt.sb.sampY  27.7 Proxy units (4) +Alia~
## 10       5318        30         1 proxy.bt.sb.sampY  27.7 Proxy units (4) +Alia~
## # ... with 14,035 more rows
…
