…
```r
PFM$everything
```

```
## # A tibble: 8,213 x 4
##    timepoints replicate              stage    value
##         <dbl>     <dbl>              <chr>    <dbl>
##  1       4334         1 proxy.bt.sb.sampYM 28.52609
##  2       4527         1 proxy.bt.sb.sampYM 27.48838
##  3       4576         1 proxy.bt.sb.sampYM 28.02794
##  4       4721         1 proxy.bt.sb.sampYM 27.19180
##  5       4914         1 proxy.bt.sb.sampYM 27.38228
##  6       4994         1 proxy.bt.sb.sampYM 27.85321
##  7       5092         1 proxy.bt.sb.sampYM 27.87501
##  8       5156         1 proxy.bt.sb.sampYM 27.83270
##  9       5254         1 proxy.bt.sb.sampYM 27.46396
## 10       5318         1 proxy.bt.sb.sampYM 27.36841
## # ... with 8,203 more rows
```
…
