Introduction to sedproxy • sedproxy
…
## $names
## [1] "simulated.proxy"  "smoothed.signal"  "everything"       "calibration.pars"
## 
## $class
## [1] "sedproxy.pfm"

is.list(PFM.5.reps)

## [1] TRUE

The first element is a dataframe/tibble with only the first replicate. The second is a smoothed version of the climate signal. The poorly named element “everything” is what we want, this contains all the replicate simulated proxies in a large long format dataframe/tibble.

PFM.5.reps$everything

## # A tibble: 28,839 × 7
##    timepoints n.samples replicate stage             value scale       label     
##         <dbl>     <dbl>     <dbl> <chr>             <dbl> <chr>       <chr>     
##  1          1        30         1 proxy.bt.sb.sampY  28.7 Proxy units (4) +Alia…
##  2        101        30         1 proxy.bt.sb.sampY  28.8 Proxy units (4) +Alia…
##  3        201        30         1 proxy.bt.sb.sampY  28.7 Proxy units (4) +Alia…
##  4        301        30         1 proxy.bt.sb.sampY  28.7 Proxy units (4) +Alia…
##  5        401        30         1 proxy.bt.sb.sampY  28.7 Proxy units (4) +Alia…
##  6        501        30         1 proxy.bt.sb.sampY  28.7 Proxy units (4) +Alia…
##  7        601        30         1 proxy.bt.sb.sampY  28.7 Proxy units (4) +Alia…
##  8        701        30         1 proxy.bt.sb.sampY  28.6 Proxy units (4) +Alia…
##  9        801        30         1 proxy.bt.sb.sampY  28.6 Proxy units (4) +Alia…
## 10        901        30         1 proxy.bt.sb.sampY  28.7 Proxy units (4) +Alia…
## # … with 28,829 more rows
…
